…
{% highlight text %}
## A tibble: 725,054 × 4
##                  book linenumber chapter        word
##                <fctr>      <int>   <int>       <chr>
##1  Sense & Sensibility          1       0       sense
##2  Sense & Sensibility          1       0         and
##3  Sense & Sensibility          1       0 sensibility
##4  Sense & Sensibility          3       0          by
##5  Sense & Sensibility          3       0        jane
##6  Sense & Sensibility          3       0      austen
##7  Sense & Sensibility          5       0        1811
##8  Sense & Sensibility         10       1     chapter
##9  Sense & Sensibility         10       1           1
##10 Sense & Sensibility         13       1         the
## ... with 725,044 more rows
…
{% highlight text %}
## A tibble: 13,914 × 2
##     word     n
##    <chr> <int>
##1    miss  1855
##2    time  1337
##3   fanny   862
##4    dear   822
##5    lady   817
##6     sir   806
##7     day   797
##8    emma   787
##9  sister   727
##10  house   699
## ... with 13,904 more rows
…
