…
{% highlight r %}
tidy_dickens <- dickens %>%
  unnest_tokens(word, text) %>%
  anti_join(stop_words)
{% endhighlight %}

The `unnest_tokens` package is used to split each row so that there is one token (word) in each row of the new data frame (tidy_dickens). Then remove stop words with an `anti_join` function.

{% highlight r %}
tidy_dickens %>%
  count(word, sort = TRUE)
{% endhighlight %}

{% highlight text %}
### A tibble: 19,634 × 2
##     word     n
##    <chr> <int>
##1    time  1218
##2    hand   918
##3   night   835
##4  looked   814
##5    head   813
##6  oliver   766
##7    dear   751
##8     joe   718
##9    miss   702
##10    sir   697
### ... with 19,624 more rows
…
### Sentiment in Dickens' Five Novels

`tidytext` package contains several sentiment lexicons, I am using ["bing"](https://www.cs.uic.edu/~liub/FBS/sentiment-analysis.html) for the following tasks. 

{% highlight r %}
bing_word_counts <- tidy_dickens %>%
  inner_join(get_sentiments("bing")) %>%
  count(word, sentiment, sort = TRUE) %>%
  ungroup()
bing_word_counts
{% endhighlight %}

{% highlight text %}
### A tibble: 3,145 × 3
##     word sentiment     n
##    <chr>     <chr> <int>
##1    miss  negative   702
##2    poor  negative   350
##3    dark  negative   299
##4    hard  negative   223
##5    dead  negative   218
##6  strong  positive   203
##7    love  positive   202
##8    fell  negative   198
##9   death  negative   194
##10   cold  negative   192
### ... with 3,135 more rows
…
And compare most frequent positive and negative words in word cloud.

### Relationships between words

{% highlight r %}
dickens_bigrams <- dickens %>%
  unnest_tokens(bigram, text, token = "ngrams", n = 2)
dickens_bigrams
{% endhighlight %}

{% highlight text %}
### A tibble: 616,994 × 2
##   gutenberg_id          bigram
##          <int>           <chr>
##1            46     a christmas
##2            46 christmas carol
##3            46        carol in
##4            46        in prose
##5            46     prose being
##6            46         being a
##7            46         a ghost
##8            46     ghost story
##9            46        story of
##10           46    of christmas
### ... with 616,984 more rows
…
{% highlight r %}
library(tidyr)
bigrams_separated <- dickens_bigrams %>%
  separate(bigram, c("word1", "word2"), sep = " ")
bigrams_filtered <- bigrams_separated %>%
  filter(!word1 %in% stop_words$word) %>%
  filter(!word2 %in% stop_words$word)
bigram_counts <- bigrams_filtered %>% 
  count(word1, word2, sort = TRUE)
bigram_counts
{% endhighlight %}

{% highlight text %}
##Source: local data frame [41,584 x 3]
##Groups: word1 [10,206]

##    word1      word2     n
##    <chr>      <chr> <int>
##1    miss   havisham   236
##2    miss      pross   144
##3  madame    defarge   113
##4    dear        boy    77
##5      ha         ha    77
##6  doctor    manette    75
##7    miss havisham's    74
##8  oliver      twist    55
##9     sir    replied    54
##10   wine       shop    52
### ... with 41,574 more rows
{% endhighlight %}

Names are the most common paired words in Dickens' novels.

{% highlight r %}
bigrams_united <- bigrams_filtered %>%
  unite(bigram, word1, word2, sep = " ")
bigrams_united
{% endhighlight %}

{% highlight text %}
### A tibble: 51,379 × 2
##   gutenberg_id            bigram
##*         <int>             <chr>
##1            46   christmas carol
##2            46       ghost story
##3            46   charles dickens
##4            46   dickens preface
##5            46 houses pleasantly
##6            46   faithful friend
##7            46     december 1843
##8            46     1843 contents
##9            46    contents stave
##10           46    marley's ghost
### ... with 51,369 more rows
…
