…
{% highlight r %}
books <- gutenberg_download(c(3177, 245, 74, 76), meta_fields = "title")
{% endhighlight %}

An important preprocessing step is tokenization. This is the process of splitting a text into individual words or sequences of words. The unnest_tokens function is a way to do just that. The result is converting the text column to be one-token-per-row like so:

{% highlight r %}
tidy_books <- books %>%
  unnest_tokens(word, text)

tidy_books
{% endhighlight %}

{% highlight text %}
### A tibble: 502,799 x 3
##   gutenberg_id                        title       word
##          <int>                        <chr>      <chr>
## 1           74 The Adventures of Tom Sawyer        the
## 2           74 The Adventures of Tom Sawyer adventures
## 3           74 The Adventures of Tom Sawyer         of
## 4           74 The Adventures of Tom Sawyer        tom
## 5           74 The Adventures of Tom Sawyer     sawyer
## 6           74 The Adventures of Tom Sawyer         by
## 7           74 The Adventures of Tom Sawyer       mark
## 8           74 The Adventures of Tom Sawyer      twain
## 9           74 The Adventures of Tom Sawyer     samuel
##10           74 The Adventures of Tom Sawyer  langhorne
# ... with 502,789 more rows
{% endhighlight %}

After removing stop words, we can find the most common words in all the four books as a whole.

{% highlight r %}
data("stop_words")
cleaned_books <- tidy_books %>%
  anti_join(stop_words)

cleaned_books %>%
  count(word, sort = TRUE)
{% endhighlight %}

{% highlight text %}
### A tibble: 21,630 x 2
##      word     n
##     <chr> <int>
## 1    time  1215
## 2     tom   982
## 3     day   701
## 4   river   684
## 5   night   562
## 6 hundred   490
## 7   water   483
## 8    head   471
## 9 chapter   465
##10  people   461
# ... with 21,620 more rows
…
Sentiment analysis is not the focus today, but since we are here already, why not have a quick look? 

{% highlight r %}
bing <- get_sentiments("bing")
bing_word_counts <- tidy_books %>%
  inner_join(bing) %>%
  count(word, sentiment, sort = TRUE) %>%
  ungroup()

bing_word_counts
{% endhighlight %}

{% highlight text %}
### A tibble: 3,023 x 3
##     word sentiment     n
##    <chr>     <chr> <int>
## 1   well  positive   989
## 2   like  positive   856
## 3   good  positive   751
## 4  right  positive   566
## 5  great  positive   427
## 6 enough  positive   367
## 7   dead  negative   344
## 8   work  positive   311
## 9 pretty  positive   280
##10 better  positive   244
# ... with 3,013 more rows
…
total_words <- book_words %>% 
  group_by(title) %>% 
  summarize(total = sum(n))

book_words <- left_join(book_words, total_words)

book_words
{% endhighlight %}

{% highlight text %}
### A tibble: 38,346 x 4
##                            title   word     n total
##                            <chr>  <chr> <int> <int>
## 1   The Adventures of Tom Sawyer    tom   722 24977
## 2        Life on the Mississippi  river   486 51875
## 3        Life on the Mississippi   time   355 51875
## 4 Adventures of Huckleberry Finn    jim   351 32959
## 5                    Roughing It   time   344 62611
## 6 Adventures of Huckleberry Finn   time   325 32959
## 7                    Roughing It    day   300 62611
## 8 Adventures of Huckleberry Finn warn't   290 32959
## 9 Adventures of Huckleberry Finn     de   252 32959
##10        Life on the Mississippi  water   245 51875
# ... with 38,336 more rows
{% endhighlight %}

Terms with the highest tf-idf across all the four novels

{% highlight r %}
book_words <- book_words %>%
  bind_tf_idf(word, title, n)

book_words %>%
  select(-total) %>%
  arrange(desc(tf_idf))
{% endhighlight %}

{% highlight text %}
### A tibble: 38,346 x 6
##                  title   word     n          tf       idf      tf_idf
##                            <chr>  <chr> <int>       <dbl>     <dbl>       ##<dbl>
## 1 The Adventures of Tom Sawyer becky 102 0.004083757 0.6931472 0.002830645
## 2 The Adventures of Tom Sawyer tom's 97  0.003883573 0.6931472 0.002691888
## 3 The Adventures of Tom Sawyer huck  232 0.009288545 0.2876821 0.002672148
## 4 AdventuresofHuckleberry Finn warn't290 0.008798811 0.2876821 0.002531260
## 5 Life on the Mississippi     pilots  93 0.001792771 1.3862944 0.002485308
## 6 AdventuresofHuckleberry Finn dey    59 0.001790103 1.3862944 0.002481609
## 7 The Adventures of Tom Sawyer potter 44 0.001761621 1.3862944 0.002442125
## 8 AdventuresofHuckleberry Finn de    252 0.007645863 0.2876821 0.002199578
## 9 Roughing It                don’t    98 0.001565220 1.3862944 0.00216985
##10 The Adventures of Tom Sawyer sid    77 0.003082836 0.6931472 0.002136859
### ... with 38,336 more rows
…
Just for the kicks, let's compare Mark Twain's works with those of Charles Dicken's. Let's get "A Tale of Two Cities”, “Great Expectations”, “A Christmas Carol in Prose; Being a Ghost Story of Christmas”, “Oliver Twist” and “Hard Times”.

What are the most common words in these novels of Charles Dickens?

{% highlight r %}
dickens <- gutenberg_download(c(98, 1400, 46, 730, 786))
tidy_dickens <- dickens %>%
  unnest_tokens(word, text) %>%
  anti_join(stop_words)
tidy_dickens %>%
  count(word, sort = TRUE)
{% endhighlight %}

{% highlight text %}
### A tibble: 19,634 x 2
##     word     n
##    <chr> <int>
## 1   time  1218
## 2   hand   918
## 3  night   835
## 4 looked   814
## 5   head   813
## 6 oliver   766
## 7   dear   751
## 8    joe   718
## 9   miss   702
##10    sir   697
### ... with 19,624 more rows
…
