…
### The most common words throughout 40 years of letters

{% highlight r %}
letter_words %>% 
  count(word, sort=TRUE)
{% endhighlight %}

{% highlight text %}
### A tibble: 14,788 × 2
##         word     n
##        <chr> <int>
##1    business  2143
##2   berkshire  1992
##3    earnings  1863
##4     company  1241
##5     million  1224
##6   insurance  1171
##7  businesses   982
##8   companies   823
##9      market   771
##10    billion   760
### ... with 14,778 more rows
…
### The most common words each year

{% highlight r %}
words_by_year <- letter_words %>%
  count(year, word, sort = TRUE) %>%
  ungroup()
words_by_year
{% endhighlight %}

{% highlight text %}
### A tibble: 83,537 × 3
##    year      word     n
##   <int>     <chr> <int>
##1   2014 berkshire   203
##2   1985  business   112
##3   1983  business    97
##4   1984  business    96
##5   2014  business    92
##6   1990  business    90
##7   2015 berkshire    90
##8   1980  earnings    87
##9   2016 berkshire    86
##10  1989  business    85
### ... with 83,527 more rows
…
### Sentiment Analysis by Words

Examine the total positive and negative contributions of each word.

{% highlight r %}
contributions <- letter_words %>%
  inner_join(get_sentiments("afinn"), by = "word") %>%
  group_by(word) %>%
  summarize(occurences = n(),
            contribution = sum(score))
contributions
{% endhighlight %}

{% highlight text %}
### A tibble: 1,225 × 3
##        word occurences contribution
##       <chr>      <int>        <int>
##1    abandon          4           -8
##2  abandoned          4           -8
##3      abhor          2           -6
##4  abilities         12           24
##5    ability         96          192
##6     aboard          3            3
##7   absentee          6           -6
##8   absorbed          3            3
##9      abuse          2           -6
##10    abuses          1           -3
### ... with 1,215 more rows
…
Now we look for the words with the highest positive scores in each letter, here it is, "outstanding" appeared eight out of ten letters. 

{% highlight r %}
sentiment_messages %>% 
  arrange(sentiment)
{% endhighlight %}

{% highlight text %}
### A tibble: 763 × 4
##    year    word sentiment words
##   <int>   <chr>     <dbl> <int>
##1   1979    loss        -3     5
##2   1980    loss        -3     6
##3   1981     bad        -3     7
##4   1982    loss        -3     6
##5   1983    loss        -3     8
##6   1984     bad        -3     5
##7   1984 charged        -3     6
##8   1984    loss        -3    23
##9   1985    loss        -3    18
##10  1986    loss        -3    15
### ... with 753 more rows
…
