…
### Tokens

A token is a meaningful unit of text, most often a word, that we are interested in using for further analysis, and tokenization is the process of splitting text into tokens. I need to use "unnest_tokens" to break text into individual tokens and transform it to a tidy data, that is one-row-per-term-per-document:

{% highlight r %}
tokens <- stock_articles %>%
  unnest(map(corpus, tidy)) %>%
  unnest_tokens(word, text) %>%
  select(company, datetimestamp, word, id, heading)
tokens
{% endhighlight %}

{% highlight text %}
### A tibble: 59,572 × 5
##     company       datetimestamp      word
##       <chr>              <dttm>     <chr>
##1  Starbucks 2017-05-23 04:37:30     tesla
##2  Starbucks 2017-05-23 04:37:30     forum
##3  Starbucks 2017-05-23 04:37:30   summary
##4  Starbucks 2017-05-23 04:37:30    mobile
##5  Starbucks 2017-05-23 04:37:30     order
##6  Starbucks 2017-05-23 04:37:30       app
##7  Starbucks 2017-05-23 04:37:30        is
##8  Starbucks 2017-05-23 04:37:30        an
##9  Starbucks 2017-05-23 04:37:30 important
##10 Starbucks 2017-05-23 04:37:30      long
### ... with 59,562 more rows, and 2 more variables: id <chr>, heading <chr>
{% endhighlight %}

### tf_idf

{% highlight r %}
article_tf_idf <- tokens %>%
  count(company, word) %>%
  filter(!str_detect(word, "\\d+")) %>%
  bind_tf_idf(word, company, n) %>%
  arrange(-tf_idf)
article_tf_idf
{% endhighlight %}

{% highlight text %}
##Source: local data frame [9,966 x 6]
##Groups: company [4]

##     company          word     n          tf       idf      tf_idf
##       <chr>         <chr> <int>       <dbl>     <dbl>       <dbl>
##1      Kraft         heinz   128 0.014134276 1.3862944 0.019594267
##2  Starbucks     starbucks   284 0.016820659 0.6931472 0.011659192
##3      Kraft           khc    74 0.008171378 1.3862944 0.011327935
##4      Kraft         kraft   139 0.015348940 0.6931472 0.010639074
##5    Walmart          west    81 0.005955882 1.3862944 0.008256606
##6    Walmart environmental    78 0.005735294 1.3862944 0.007950806
##7    Walmart      mountain    87 0.006397059 0.6931472 0.004434103
##8  Starbucks          sbux   105 0.006218905 0.6931472 0.004310617
##9    Walmart      virginia    36 0.002647059 1.3862944 0.003669603
##10   Walmart        clarke    35 0.002573529 1.3862944 0.003567669
### ... with 9,956 more rows
…
