…
For the most part, we would expect it is a fairly standard list of common words in Hacker News titles. The top word is "hn", because "ask hn", "show hn" are part of the social news site's structure. The second most frequent words such as "google", "data", "app", "web", "startup" and so on are all within our expectation for a social news site like Hacker News. 

{% highlight r %}
tidy_hacker <- hackernews %>%
  unnest_tokens(word, title) %>%
  anti_join(stop_words)
  
tidy_hacker %>%
  count(word, sort = TRUE)
{% endhighlight %}

{% highlight text %}
### A tibble: 176,672 x 2
##      word     n
##     <chr> <int>
## 1      hn 76530
## 2  google 23574
## 3    data 22520
## 4     app 19452
## 5     web 16075
## 6 startup 15021
## 7    code 12854
## 8    time 12656
## 9   video 12370
##10   apple 11780
### ... with 176,662 more rows
…
Let's address the topic of sentiment analysis. Sentiment analysis detects the sentiment of a body of text in terms of polarity (positive or negative). When used, particularly at scale, it can show you how people feel towards the topics that are important to you.

We can analyze word counts that contribute to each sentiment. From the Hacker news articles, We fount out how much each word contributed to each sentiment

{% highlight r %}
bing_word_counts <- tidy_hacker %>%
  inner_join(get_sentiments("bing")) %>%
  count(word, sentiment, sort = TRUE) %>%
  ungroup()
bing_word_counts
{% endhighlight %}

{% highlight text %}
### A tibble: 4,821 x 3
##      word sentiment     n
##     <chr>     <chr> <int>
## 1    free  positive 11777
## 2   cloud  negative  7010
## 3     top  positive  5654
## 4 support  positive  4805
## 5    fast  positive  3604
## 6   smart  positive  3266
## 7   swift  positive  3247
## 8     bad  negative  3234
## 9    easy  positive  3216
##10    hack  negative  3020
### ... with 4,811 more rows
…
bigrams_separated <- hacker_bigrams %>%
  separate(bigram, c("word1", "word2"), sep = " ")
bigrams_filtered <- bigrams_separated %>%
  filter(!word1 %in% stop_words$word) %>%
  filter(!word2 %in% stop_words$word)
bigram_counts <- bigrams_filtered %>% 
  count(word1, word2, sort = TRUE)
bigram_counts
{% endhighlight %}

{% highlight text %}
### A tibble: 1,255,379 x 3
##         word1        word2     n
##         <chr>        <chr> <int>
## 1     machine     learning  3369
## 2     silicon       valley  3338
## 3        deep     learning  2226
## 4        real         time  2116
## 5      social        media  1810
## 6        data      science  1621
## 7 programming     language  1601
## 8   raspberry           pi  1584
## 9  artificial intelligence  1549
##10         san    francisco  1490
### ... with 1,255,369 more rows
…
