…
{% highlight text %}
##A LDA_VEM topic model with 4 topics.
{% endhighlight %}

## Word-topic probabilities

{% highlight r %}
nytimes_topics <- tidy(nytimes_lda, matrix = "beta")
nytimes_topics
{% endhighlight %}

{% highlight text %}
### A tibble: 13,160 x 3
##   topic  term          beta
##   <int> <chr>         <dbl>
## 1     1 adapt  3.204101e-04
## 2     2 adapt 8.591570e-103
## 3     3 adapt 1.585924e-100
## 4     4 adapt 5.643274e-101
## 5     1   add  6.408202e-04
## 6     2   add 1.677995e-100
## 7     3   add  3.793627e-04
## 8     4   add  7.110579e-04
## 9     1 addit  3.204101e-04
##10     2 addit  5.634930e-04
### ... with 13,150 more rows
…
From a quick view of the visualization it appears that the algorithm has done a decent job. The most common words in topic 9 include “uber” and “khosrowshahi", which suggests it is about the new Uber CEO Dara Khosrowshahi. The most common words in topic 5 include “insurance”, “houston”, and “corporate”, suggesting that this topic represents insurance related matters after Houston's Hurrican Harvey. One interesting observation is that the word "company" is common in 6 of the 9 topics.

For the interest of space, I fit a model with 9 topics to this dataset. I encourage you to try a range of different values of k (topic) to find the optimal number of topics, to see whether the model's performance can be improved.

## Document-topic probabilities

Besides estimating each topic as a mixture of words, topic modeling also models each document as a mixture of topics like so:

{% highlight r %}
nytimes_lda_gamma <- tidy(nytimes_lda, matrix = "gamma")
nytimes_lda_gamma
{% endhighlight %}

{% highlight text %}
### A tibble: 198 x 3
##   document topic        gamma
##      <chr> <int>        <dbl>
## 1        1     1 8.191867e-05
## 2        2     1 4.471408e-05
## 3        3     1 4.180694e-05
## 4        4     1 3.184344e-05
## 5        5     1 4.540474e-05
## 6        6     1 9.998000e-01
## 7        7     1 2.972724e-05
## 8        8     1 3.492409e-05
## 9        9     1 3.275588e-05
##10       10     1 3.918000e-05
### ... with 188 more rows
{% endhighlight %}

Each of these values (gamma) is an estimated proportion of words from that document that are generated from that topic. For example, the model estimates that about 0.008% of the words in document 1 were generated from topic 1. To confirm this result, we check what the most common words in document 1 were: 

{% highlight r %}
tidy(dtm) %>%
  filter(document == 1) %>%
  arrange(desc(count))
{% endhighlight %}

{% highlight text %}
### A tibble: 177 x 3
##   document    term count
##      <chr>   <chr> <dbl>
## 1        1  driver    11
## 2        1     app     7
## 3        1     car     6
## 4        1  teenag     5
## 5        1   drive     4
## 6        1  parent     4
## 7        1   phone     4
## 8        1 compani     3
## 9        1  famili     3
##10        1  inform     3
### ... with 167 more rows
…
